<?xml version="1.0" encoding="utf-8"?>
<!-- Generator: Adobe Illustrator 24.0.2, SVG Export Plug-In . SVG Version: 6.00 Build 0)  -->
<svg version="1.1" id="Capa_1" xmlns="http://www.w3.org/2000/svg" xmlns:xlink="http://www.w3.org/1999/xlink" x="0px" y="0px"
	 viewBox="0 0 119.97 38.64" style="enable-background:new 0 0 119.97 38.64;" xml:space="preserve">
<g>
	<path style="fill:#94969A;" d="M35.3308,21.2218c-1.0788-1.2989-2.5648-2.4191-4.4291-3.3387
		c2.4664-1.9501,3.7131-4.4513,3.7131-7.4512c0-1.7986-0.3532-3.3812-1.0537-4.7089c-0.6986-1.3258-1.6906-2.4326-2.9469-3.2885
		c-1.2293-0.8356-2.6902-1.4599-4.3538-1.8547C24.6355,0.194,22.8388,0,20.9166,0H0.8787v38.64H21.87
		c2.0901,0,4.0662-0.2132,5.8765-0.632c1.843-0.4265,3.4931-1.101,4.9057-1.9993c1.4474-0.9225,2.6034-2.1248,3.4294-3.5703
		c0.8395-1.4542,1.2621-3.1998,1.2621-5.1865C37.3437,24.8577,36.6663,22.8295,35.3308,21.2218 M24.1183,13.8767
		c-0.9649,0.6832-2.2753,1.0315-3.8964,1.0315H9.816V7.3383h10.595c1.6732,0,2.9894,0.2365,3.9157,0.7024
		c0.2721,0.1351,1.1,0.552,1.1,2.3911C25.4267,12.1244,24.9964,13.2515,24.1183,13.8767 M9.816,22.2466h12.3068
		c2.3467,0,4.0701,0.3609,5.118,1.0691c0.9553,0.6465,1.4204,1.7243,1.4204,3.2982c0,1.4638-0.5037,2.5735-1.5381,3.3946
		c-1.0827,0.8579-2.8697,1.291-5.3168,1.291H9.816V22.2466L9.816,22.2466z"/>
	<polygon style="fill:#BACD00;" points="119.0913,14.008 105.366,14.008 105.366,0.2808 95.3442,0.2808 95.3442,14.008 
		81.617,14.008 81.617,24.0298 95.3442,24.0298 95.3442,37.7561 105.366,37.7561 105.366,24.0298 119.0913,24.0298 	"/>
	<polygon style="fill:#BACD00;" points="77.4137,7.6645 70.3253,0.577 58.9699,11.9324 47.6145,0.577 40.5299,7.6645 
		51.8872,19.0199 40.5299,30.3734 47.6145,37.4608 58.9699,26.1064 70.3253,37.4608 77.4137,30.3734 66.0564,19.0199 	"/>
</g>
</svg>
