<?xml version="1.0" encoding="utf-8"?>
<!-- Generator: Adobe Illustrator 24.0.2, SVG Export Plug-In . SVG Version: 6.00 Build 0)  -->
<svg version="1.1" id="Capa_1" xmlns="http://www.w3.org/2000/svg" xmlns:xlink="http://www.w3.org/1999/xlink" x="0px" y="0px"
	 viewBox="0 0 119.97 38.64" style="enable-background:new 0 0 119.97 38.64;" xml:space="preserve">
<path style="fill:#5D4B9A;" d="M17.9908,10.6533c1.4748,0,2.8123,0.601,3.7662,1.5559l0,0c2.0758,2.0748,5.4605,2.0748,7.5611,0
	c2.0758-2.0748,2.0758-5.4595,0-7.5602c-2.8924-2.8667-6.9048-4.6677-11.3273-4.6677C9.1476-0.0187,1.97,7.159,1.97,16.0031
	c0,4.4225,1.8011,8.434,4.6935,11.3273l11.3273,11.3283l11.3273-11.3283c2.0758-2.0739,2.0758-5.4595,0-7.561
	c-2.0739-2.0739-5.4586-2.0739-7.5611,0l-3.7662,3.7949l-3.7662-3.7949l0,0c-0.9559-0.9549-1.555-2.2934-1.555-3.7663
	C12.641,13.0553,15.0431,10.6533,17.9908,10.6533z M12.3414,21.6801l5.678,5.678l5.6761-5.678c1.0379-1.0369,2.7302-1.0369,3.7662,0
	c1.0379,1.0369,1.0379,2.7292,0,3.7671l-9.4423,9.4432l-9.4709-9.4432c-2.404-2.4288-3.9036-5.76-3.9036-9.4442
	c0-7.3703,5.9775-13.3478,13.3459-13.3478c3.6861,0,7.0154,1.5015,9.4442,3.9036l0,0c1.0379,1.0369,1.0379,2.7292,0,3.7663
	c-1.036,1.0379-2.7283,1.0379-3.7662,0l0,0c-1.4462-1.4462-3.4667-2.3467-5.678-2.3467c-4.4206,0-8.0247,3.5755-8.0247,8.0247
	C9.9947,18.2133,10.8666,20.2329,12.3414,21.6801z M65.185,9.8614c-1.202-1.1743-2.839-1.8831-4.6954-1.8831
	c-4.2852,0.0267-7.5878,3.356-7.5878,8.0247l0,0c0,4.6667,3.2759,7.997,7.5878,8.0247c1.8564,0,3.4934-0.7098,4.6954-1.8841v1.4739
	h2.8371V8.3876L65.185,8.6328V9.8614z M60.4896,21.3262c-2.5375-0.0286-4.6668-2.0748-4.6668-5.3498
	c0-3.2769,2.1006-5.3231,4.6668-5.3498c2.5394,0.0267,4.6687,2.073,4.6687,5.3498C65.1297,19.2512,63.0291,21.3262,60.4896,21.3262z
	 M45.3141,10.6533c1.6637,0.0267,3.1652,0.9826,3.9856,2.4832l2.4555-1.5005c-1.3088-2.238-3.6575-3.6574-6.4411-3.6574
	c-4.3138,0.0267-7.5878,3.356-7.5878,8.0247l0,0c0,4.6667,3.274,7.997,7.5878,8.0247c2.7837,0,5.1323-1.4195,6.4411-3.6574
	l-2.4555-1.5015c-0.8204,1.5015-2.3219,2.4841-3.9856,2.4841c-2.5394-0.0267-4.6668-2.0748-4.6668-5.3498
	C40.6473,12.7271,42.7746,10.6809,45.3141,10.6533z M78.5042,7.9783c-1.8545,0-3.4934,0.7088-4.6935,1.8831V2.6552l-2.8409,0.2462
	v20.7161h2.8409v-1.4739c1.2001,1.1743,2.839,1.8841,4.6935,1.8841C82.7894,24,86.092,20.6697,86.092,16.003l0,0
	C86.092,11.3353,82.7894,8.0051,78.5042,7.9783z M78.5042,21.3262c-2.5375-0.0286-4.6668-2.0748-4.6668-5.3498
	c0-3.2769,2.1025-5.3231,4.6668-5.3498c2.5394,0.0267,4.6687,2.073,4.6687,5.3498C83.1729,19.2512,81.0436,21.3262,78.5042,21.3262z
	 M114.7794,8.3876l-4.3653,10.0175l-4.6687-10.0175H99.684V7.0759c0-1.555,0.7384-2.2084,2.2399-2.2084
	c0.4636,0,1.0093,0.0811,1.555,0.2166l0.683-2.3735c-0.9005-0.2995-1.885-0.4636-2.9744-0.4636
	c-2.9496,0-4.5332,1.8822-4.5332,4.6391v1.5283l-2.5929,0.2184v2.4021h2.5929v12.5828h3.0298V11.0072h3.9608l5.2659,10.8093
	c-0.4369,0.9549-0.9807,2.0205-1.8278,2.6749c-0.7651,0.6001-1.719,0.6563-2.6463,0.4636l-0.7117,2.4574
	c1.3642,0.4904,3.0851,0.4369,4.3672-0.2452c1.3909-0.7651,2.3219-2.1855,2.9477-3.6031L118,8.3608h-3.2206V8.3876L114.7794,8.3876
	L114.7794,8.3876z M90.0776,2.2203c-1.1467,0-2.0739,0.9006-2.0739,2.072c0,1.1486,0.9272,2.0491,2.0739,2.0491
	s2.0739-0.9006,2.0739-2.0491C92.1248,3.1475,91.2243,2.2203,90.0776,2.2203z M88.578,23.5908h3.0298V8.3876L88.578,8.6615V23.5908z
	"/>
</svg>
