<?xml version="1.0" encoding="utf-8"?>
<!-- Generator: Adobe Illustrator 24.0.2, SVG Export Plug-In . SVG Version: 6.00 Build 0)  -->
<svg version="1.1" id="Capa_1" xmlns="http://www.w3.org/2000/svg" xmlns:xlink="http://www.w3.org/1999/xlink" x="0px" y="0px"
	 viewBox="0 0 119.97 38.64" style="enable-background:new 0 0 119.97 38.64;" xml:space="preserve">
<g>
	<path style="fill:#00337F;" d="M54.7404,18.4704c0-1.0601,0.1899-1.4414-0.9983-2.0707l-0.8197-0.4073v-0.7304h8.1884v0.7304
		l-0.834,0.3297c-1.2398,0.5058-1.2398,0.6452-1.2137,2.1483l0.0128,6.0534l-0.3042,0.2914
		c-1.4276,0.3665-4.7626,1.2744-7.7724,1.2744c-6.8981,0-10.2984-3.5748-10.2984-11.3095c0-8.315,4.8034-11.9158,11.1084-11.9158
		c1.6935,0,4.7646,0,6.8996,1.8068c0.7079,0.5946,0.7717,1.2627,0.7717,1.5281c0,0.5058-0.1016,0.6089-0.2031,0.81l-1.5287,2.9685
		h-0.5686c0-1.4654-1.7058-5.3694-6.1417-5.3694c-5.1433,0-5.396,3.5871-5.396,9.6533c0,5.3082,0.5563,10.0846,6.698,10.0846
		c1.9834,0,2.3494-1.0474,2.3999-2.2234V18.4704z"/>
	<path style="fill:#00337F;" d="M63.1569,24.9163l1.4669-0.5956c1.2005-0.4676,1.2005-1.3388,1.2005-3.2732V7.1098
		c0-1.0729-0.3042-1.6042-1.1377-2.1743l-1.3398-0.8962V3.3068h6.0779l0.368,0.2266c0.6686,0.8978,2.0585,3.311,3.9291,5.84
		l6.4448,8.7677c0.2654,0.3685,0.4048,0.5329,0.5293,0.5329c0.2654,0,0.2654-0.3297,0.2654-0.9355V7.1354
		c0-1.5271-0.0255-1.8314-1.3255-2.3627l-1.9089-0.7335V3.3067h7.6469v0.7324l-0.9723,0.3665
		c-1.4312,0.5681-1.7073,0.8983-1.7073,3.0961v13.1428c0,2.0095,0.0368,4.0444,0.0368,4.7381l-0.2271,0.2654h-1.8681l-0.368-0.2654
		c-0.3047-0.3665-2.0355-2.8057-3.8045-5.1688L68.6539,9.776c-0.4298-0.5696-0.6309-0.8732-0.7962-0.8732
		c-0.3032,0-0.3032,0.3424-0.3032,0.8095v11.9307c0,1.6021,0,2.1074,1.4031,2.5786l1.9707,0.6947v0.7319h-7.7714V24.9163z"/>
	<path style="fill:#00337F;" d="M87.3316,24.9163l1.4649-0.4931c1.1009-0.3685,1.1397-0.9729,1.1397-3.0716V6.9323
		c0-1.5919,0-1.9967-1.1397-2.3622l-1.4649-0.5308V3.3068h11.0563c3.8683,0,7.6581,0.833,7.6581,5.8997
		c0,4.6396-3.4595,7.508-8.8698,7.508c-0.2271,0-0.5318-0.0368-0.7329-0.0368l-0.4925-1.2041l0.2654-0.2654
		c2.4249-0.0602,5.3679-1.0601,4.9519-5.7492c-0.3272-3.6494-1.3873-4.3328-4.3844-4.3328c-2.0345,0-2.1738,0.3017-2.1738,1.1377
		v15.0875c0,2.2361-0.0383,2.7031,1.3026,3.0716l1.7303,0.4931v0.7319H87.3316V24.9163z"/>
	<rect x="40.7007" y="28.6427" style="fill:#00337F;" width="70.2799" height="0.467"/>
	<path style="fill:#FB6C06;" d="M26.9785,14.3647c0,2.0584-1.6685,3.7269-3.7407,3.7269c-2.0595,0-3.7285-1.6685-3.7285-3.7269
		c0-2.0605,1.669-3.7295,3.7285-3.7295C25.31,10.6352,26.9785,12.3042,26.9785,14.3647"/>
	<path style="fill:#FB6C06;" d="M17.0323,8.1337H8.97l1.6302,4.9928h4.0179v-0.0128c4.07,0,7.3687-3.2988,7.3799-7.3814V1.7273
		L17.0323,0.097V8.1337z"/>
	<path style="fill:#FB6C06;" d="M17.0078,20.5804V28.63l4.9917-1.6149v-4.021h-0.0138c0-4.0674-3.2987-7.3656-7.3794-7.3789h-4.0062
		L8.97,20.5804C8.97,20.5804,17.0078,20.5804,17.0078,20.5804z"/>
	<path style="fill:#FB6C06;" d="M29.4545,20.5931h8.0623l-1.6425-4.9779h-4.0067h-0.0117
		c-4.0689,0.0133-7.3672,3.3115-7.3672,7.3789v0.0153v3.9903l4.9657,1.6303V20.5931z"/>
	<path style="fill:#FB6C06;" d="M29.4678,8.1592V0.1097l-4.979,1.6165V5.745c0.0117,4.07,3.311,7.3687,7.3789,7.3794h0.0128h3.9939
		l1.6415-4.9652H29.4678z"/>
	<path style="fill:#00337F;" d="M109.1432,3.6728c0.7707,0,1.4026,0.6186,1.4026,1.5026c0,0.8738-0.6319,1.5037-1.4026,1.5037
		v0.3552c1.0218,0,1.8568-0.835,1.8568-1.8589c0-1.0356-0.835-1.8686-1.8568-1.8686V3.6728z M109.1432,5.4541v-0.441h0.0128
		c0.2399,0,0.4308-0.0393,0.4308-0.3175c0-0.2516-0.2292-0.2899-0.4201-0.2899h-0.0235V4.1026h0.0618
		c0.5058,0,0.7845,0.1766,0.7845,0.6191c0,0.366-0.2144,0.5441-0.5574,0.5696l0.5696,0.9336h-0.4048L109.1432,5.4541z
		 M109.1432,6.6791c-0.7819,0-1.4159-0.6298-1.4159-1.5037c0-0.884,0.6339-1.5026,1.4159-1.5026v-0.366
		c-1.0366,0-1.8701,0.833-1.8701,1.8686c0,1.0239,0.8335,1.8589,1.8701,1.8589V6.6791z M109.1432,4.1025v0.3031h-0.3277v0.6074
		h0.3277v0.441l-0.0878-0.1393h-0.2399v0.91h-0.394V4.1025C108.4214,4.1025,109.1432,4.1025,109.1432,4.1025z"/>
	<path style="fill:#00337F;" d="M42.3968,38.543c-0.7906,0-1.2801-0.2251-1.4598-0.3277c-0.1633-0.1863-0.2746-0.8075-0.2746-1.3904
		c0.0587-0.1112,0.2572-0.1195,0.3251-0.0255c0.1715,0.5594,0.7467,1.347,1.4771,1.347c0.6354,0,0.9274-0.4364,0.9274-0.8672
		c0-0.6937-0.6528-1.1076-1.1678-1.3622c-0.6181-0.3129-1.2964-0.8268-1.2964-1.6747c-0.0082-0.9729,0.7467-1.6414,1.9921-1.6414
		c0.2838,0,0.6349,0.0342,0.9779,0.1372c0.1123,0.0342,0.1899,0.0515,0.292,0.0684c0.0689,0.1889,0.1557,0.6533,0.1557,1.2296
		c-0.0439,0.1031-0.2578,0.1112-0.3353,0.0255c-0.1465-0.4389-0.515-1.0662-1.1331-1.0662c-0.5671,0-0.8759,0.3706-0.8759,0.8008
		c0,0.392,0.3512,0.7539,0.7804,0.9769l0.5681,0.3001c0.5308,0.2828,1.2097,0.7794,1.2097,1.7262
		C44.5594,37.8575,43.6922,38.543,42.3968,38.543"/>
	<path style="fill:#093071;" d="M51.5651,34.9701c0,0.2399,0.0082,0.2573,0.2399,0.2573h0.5931
		c0.4466,0,0.5492-0.0602,0.6349-0.4711l0.0429-0.2144c0.0602-0.0684,0.2756-0.0684,0.317,0.0082
		c-0.0153,0.2746-0.0245,0.5829-0.0245,0.9106c0,0.3256,0.0092,0.6365,0.0245,0.9106c-0.0413,0.077-0.2567,0.0852-0.317,0.0082
		l-0.0429-0.2139c-0.0858-0.4139-0.1883-0.4844-0.6349-0.4844H51.805c-0.2317,0-0.2399,0.0108-0.2399,0.2679v1.0218
		c0,0.3941,0.0342,0.6707,0.1378,0.8162c0.1118,0.1542,0.2746,0.2225,0.9024,0.2225c0.7462,0,1.0376-0.026,1.5093-0.9958
		c0.0689-0.0944,0.2843-0.0602,0.3185,0.0429c-0.0342,0.4456-0.2399,1.1434-0.3609,1.373
		c-0.4553-0.0148-1.2791-0.0239-1.9839-0.0239h-1.1147c-0.4134,0-0.834,0.0092-1.4766,0.0239c-0.0689-0.0495-0.0689-0.2552,0-0.3001
		l0.4027-0.0602c0.3864-0.0597,0.4379-0.1108,0.4379-0.9014v-3.2022c0-0.7819-0.0516-0.8335-0.4379-0.9106l-0.2144-0.0423
		c-0.0771-0.0515-0.0694-0.2486,0.0163-0.3001c0.4037,0.0174,0.8258,0.0255,1.2367,0.0255h1.8196
		c0.5507,0,1.0397-0.0082,1.1525-0.0255c0.0061,0.1368,0.0679,0.7544,0.1102,1.3321c-0.0342,0.0944-0.2322,0.1098-0.318,0.0322
		c-0.0939-0.3001-0.2144-0.5594-0.3251-0.6788c-0.1633-0.1634-0.4211-0.2659-0.8422-0.2659h-0.6865
		c-0.2838,0-0.2838,0.0199-0.2838,0.3348V34.9701z"/>
	<path style="fill:#00337F;" d="M64.6932,37.4334c0,0.3598,0.0163,0.5334,0.1786,0.5676c0.0357,0.0342,0.0265,0.1822-0.025,0.2077
		c-0.1465,0.0255-0.369,0.0495-0.6007,0.1286c-0.2996,0.0924-1.0397,0.2057-1.5195,0.2057c-0.5844,0-1.0815-0.0597-1.692-0.3022
		c-1.0045-0.4028-1.691-1.3557-1.691-2.5938c0-1.0708,0.4808-2.0156,1.5108-2.5918c0.5839-0.3169,1.2801-0.4543,2.0095-0.4543
		c0.9529,0,1.4256,0.2057,1.6996,0.2057c0.0255,0.2573,0.0342,0.859,0.1199,1.3817c-0.0342,0.0944-0.2659,0.1046-0.3256,0.0194
		c-0.2751-0.8095-0.8161-1.2122-1.6139-1.2122c-1.3658,0-2.0263,1.1331-2.0263,2.4907c0,1.2275,0.4211,1.9553,0.9784,2.333
		c0.4119,0.2782,0.859,0.3272,1.176,0.3272c0.49,0,0.5926-0.0939,0.5926-0.6533v-0.5395c0-0.463-0.0515-0.5145-0.464-0.5742
		l-0.3777-0.051c-0.0944-0.0515-0.0944-0.2506,0-0.3001c0.6104,0.0153,1.03,0.026,1.4516,0.026c0.4119,0,0.833-0.0108,1.1249-0.026
		c0.0674,0.0495,0.0674,0.2486,0,0.3001l-0.1991,0.0342c-0.2572,0.0423-0.3073,0.1282-0.3073,0.591V37.4334z"/>
	<path style="fill:#00337F;" d="M70.7869,33.9739c0-0.7988-0.0515-0.8498-0.4369-0.9269l-0.2144-0.0434
		c-0.0684-0.051-0.0766-0.2394,0.0173-0.2909c0.4109,0.0174,0.8417,0.0255,1.253,0.0255c0.4221,0,0.8417-0.0082,1.253-0.0255
		c0.0684,0.0515,0.0684,0.2399,0,0.2909l-0.2057,0.0347c-0.3854,0.0684-0.4369,0.1368-0.4369,0.9356v1.9839
		c0,1.0044,0.1113,2.1141,1.4159,2.1141c1.0989,0,1.4332-0.9642,1.4332-2.1396v-1.0391c0-0.6942-0.0342-1.3475-0.1291-1.5705
		c-0.0766-0.1817-0.2654-0.2332-0.4966-0.2756l-0.2333-0.0434c-0.0669-0.0684-0.0495-0.2394,0-0.2909
		c0.4645,0.0174,0.7988,0.0255,1.152,0.0255c0.319,0,0.636-0.0082,0.9621-0.0255c0.051,0.0515,0.0684,0.2225,0,0.2909
		l-0.1546,0.0347c-0.2225,0.051-0.3874,0.1025-0.4645,0.2843c-0.0965,0.2231-0.1286,0.8764-0.1286,1.5705v0.9596
		c0,0.8095-0.0771,1.5465-0.5507,2.0712c-0.3767,0.4053-1.0045,0.6191-1.6981,0.6191c-0.6533,0-1.2362-0.1031-1.6991-0.4798
		c-0.4492-0.3706-0.638-1.0065-0.638-1.941V33.9739z"/>
	<path style="fill:#00337F;" d="M81.7345,34.1286c0-0.859-0.0174-0.9534-0.3792-1.0044l-0.2312-0.0347
		c-0.0857-0.0423-0.0857-0.2567,0.0168-0.2996c0.6451-0.0429,1.3153-0.077,2.1294-0.077c0.7304,0,1.3577,0.1112,1.6833,0.3083
		c0.4992,0.2914,0.7544,0.7217,0.7544,1.2719c0,0.7631-0.514,1.0882-0.9085,1.2857c-0.0857,0.0449-0.0857,0.0965-0.0424,0.1903
		c0.565,1.1505,0.9187,1.7951,1.3321,2.1483c0.2225,0.1802,0.4456,0.2291,0.5737,0.2404c0.0771,0.0423,0.0771,0.1715,0.0342,0.2225
		c-0.1368,0.0597-0.4109,0.0751-0.6763,0.0751c-0.7927,0-1.2898-0.2828-1.667-0.9019c-0.2761-0.4538-0.4731-0.8738-0.6702-1.3301
		c-0.1051-0.2291-0.2419-0.3001-0.4563-0.3001c-0.2996,0-0.317,0.0174-0.317,0.1889v1.0561c0,0.7906,0.0516,0.8504,0.4369,0.9208
		l0.2312,0.0409c0.0623,0.0429,0.0623,0.2506,0,0.3001c-0.4543-0.0148-0.8478-0.0239-1.2597-0.0239
		c-0.4303,0-0.8075,0.0092-1.2551,0.0239c-0.0684-0.0495-0.0684-0.2572,0-0.3001l0.2317-0.0409
		c0.3874-0.0705,0.4389-0.1301,0.4389-0.9208V34.1286z M82.9105,35.2187c0,0.3017,0.0255,0.3277,0.5313,0.3277
		c0.3103,0,0.4905-0.0797,0.6548-0.2419c0.1465-0.1455,0.3088-0.4201,0.3088-0.9258c0-0.7732-0.4583-1.2719-1.1265-1.2719
		c-0.3512,0-0.3685,0.0255-0.3685,0.4389V35.2187z"/>
	<path style="fill:#00337F;" d="M97.1717,35.5464c0,1.8702-1.2551,2.9966-3.0997,2.9966c-1.7241,0-2.9792-1.1351-2.9792-2.9302
		c0-1.6986,1.2699-3.0118,3.065-3.0118C95.9421,32.6009,97.1717,33.8029,97.1717,35.5464 M94.0873,32.9955
		c-1.054,0-1.6195,0.9876-1.6195,2.4203c0,1.0494,0.3685,2.7306,1.767,2.7306c1.1244,0,1.5613-1.0984,1.5613-2.4888
		C95.7961,34.1883,95.154,32.9955,94.0873,32.9955"/>
	<path style="fill:#00337F;" d="M103.9957,38.543c-0.7881,0-1.2791-0.2251-1.4587-0.3277
		c-0.1649-0.1863-0.2766-0.8075-0.2766-1.3904c0.0607-0.1112,0.2598-0.1195,0.3282-0.0255c0.1715,0.5594,0.7477,1.347,1.4761,1.347
		c0.636,0,0.9274-0.4364,0.9274-0.8672c0-0.6937-0.6533-1.1076-1.1678-1.3622c-0.6166-0.3129-1.2954-0.8268-1.2954-1.6747
		c-0.0087-0.9729,0.7472-1.6414,1.9916-1.6414c0.2828,0,0.6365,0.0342,0.9795,0.1372c0.1113,0.0342,0.1878,0.0515,0.2909,0.0684
		c0.0684,0.1889,0.1541,0.6533,0.1541,1.2296c-0.0429,0.1031-0.2572,0.1112-0.3338,0.0255
		c-0.1455-0.4389-0.514-1.0662-1.1336-1.0662c-0.5676,0-0.8758,0.3706-0.8758,0.8008c0,0.392,0.3517,0.7539,0.7799,0.9769
		l0.5696,0.3001c0.5313,0.2828,1.2081,0.7794,1.2081,1.7262C106.1593,37.8575,105.2942,38.543,103.9957,38.543"/>
</g>
</svg>
